…
Eclipse vectors that are different in nature, such as well (start with
**W**) variables, will get a different size than field variables (start
with **F**):

``` r
# read a well variable
tibble::as_tibble(get_vector_column(parser, "WBHP"))
#> # A tibble: 1,074 x 1
#>     WBHP
#>    <dbl>
#>  1    0 
#>  2    0 
#>  3  221.
#>  4  221.
#>  5  220.
#>  6  219.
#>  7  218.
#>  8  217.
#>  9  216.
#> 10  215.
#> # ... with 1,064 more rows
```
